{
  "databases": [
    {
      "database_type": "mssql",
      "alias": "northwind",
      "local_path": "",
      "name": "Northwind",
      "server": "localhost",
      "port": "",
      "username": "sa",
      "password": "dcm1*4U2U"
    }
  ]
}